com/nixsolutions/dto/Person.class
com/nixsolutions/dto/package-info.class
com/nixsolutions/service/PersonService.class
com/nixsolutions/rest/HelloRestService.class
com/nixsolutions/service/PersonServiceImpl.class
com/nixsolutions/rest/HelloRestServiceImpl.class
